{
  "name": "Label",
  "fields": [
    {
      "fieldName": "label",
      "fieldType": "String",
      "fieldValidateRules": ["required", "minlength"],
      "fieldValidateRulesMinlength": "3"
    }
  ],
  "relationships": [
    {
      "relationshipType": "many-to-many",
      "otherEntityName": "ticket",
      "otherEntityRelationshipName": "label",
      "relationshipName": "ticket",
      "ownerSide": false
    }
  ],
  "entityTableName": "label",
  "dto": "no",
  "pagination": "no",
  "service": "no",
  "jpaMetamodelFiltering": false,
  "fluentMethods": true,
  "readOnly": false,
  "embedded": false,
  "applications": "*",
  "changelogDate": "20210607132154"
}
